<?xml version="1.0" encoding="utf-8"?>
<!-- Generator: Adobe Illustrator 16.0.0, SVG Export Plug-In . SVG Version: 6.00 Build 0)  -->
<!DOCTYPE svg PUBLIC "-//W3C//DTD SVG 1.1//EN" "http://www.w3.org/Graphics/SVG/1.1/DTD/svg11.dtd">
<svg version="1.1" id="Layer_1" xmlns="http://www.w3.org/2000/svg" xmlns:xlink="http://www.w3.org/1999/xlink" x="0px" y="0px"
	 width="306.569px" height="508.369px" viewBox="144.058 90.565 306.569 508.369"
	 enable-background="new 144.058 90.565 306.569 508.369" xml:space="preserve">
<path d="M176.798,572.74h242.875c3.571,0,5.953-2.381,5.953-5.952V245.337c0-70.243-57.147-127.391-127.391-127.391
	s-127.391,57.147-127.391,127.391v321.451C170.845,569.766,173.822,572.74,176.798,572.74z M304.188,358.44H413.72v95.245H304.188
	V358.44z M292.282,453.686H182.751V358.44h109.531V453.686z M413.72,346.534H304.188V251.29H413.72V346.534z M304.188,129.853
	c26.191,1.19,50.599,11.311,69.053,27.979l-69.053,72.625V129.853z M292.282,230.456l-69.646-72.625
	c19.049-16.072,42.859-26.192,69.053-27.979v100.604H292.282z M292.282,346.534H182.751V251.29h109.531V346.534z M182.751,465.591
	h109.531v95.245H182.751V465.591z M413.72,560.836H304.188v-95.245H413.72V560.836z M413.124,239.385H311.927l69.646-73.22
	C400.028,185.214,411.934,210.811,413.124,239.385z M214.301,166.165l69.647,73.22H182.751
	C184.537,210.811,195.847,185.214,214.301,166.165z"/>
<path d="M150.011,598.934h294.663c3.57,0,5.953-2.381,5.953-5.952V232.242l0,0c-1.786-36.312-17.858-72.029-44.646-98.222
	c-28.573-27.978-66.671-43.456-108.341-43.456c-83.936,0-149.415,60.72-153.582,141.678v360.145
	C144.058,595.956,147.034,598.934,150.011,598.934z M297.64,102.47c66.075,0,137.51,48.813,141.677,130.366v354.191H155.963V232.836
	C159.535,158.426,220.254,102.47,297.64,102.47z"/>
</svg>
